{
    "name": "PlayerInput",
    "maps": [
        {
            "name": "PlayerObject",
            "id": "e495fa1a-4b3a-4fcd-bb74-551fcfd0a4a3",
            "actions": [
                {
                    "name": "Move",
                    "type": "PassThrough",
                    "id": "0df28358-22ac-4c0c-84d7-fc8681d02388",
                    "expectedControlType": "Vector2",
                    "processors": "",
                    "interactions": "",
                    "initialStateCheck": false
                },
                {
                    "name": "Jump",
                    "type": "Button",
                    "id": "2c80796c-33a2-4448-b647-7ff5284a5828",
                    "expectedControlType": "Button",
                    "processors": "",
                    "interactions": "",
                    "initialStateCheck": false
                },
                {
                    "name": "Mouse Look",
                    "type": "PassThrough",
                    "id": "e383eca7-3c9a-4f14-a61e-e72dddb99b6c",
                    "expectedControlType": "Vector2",
                    "processors": "",
                    "interactions": "",
                    "initialStateCheck": false
                }
            ],
            "bindings": [
                {
                    "name": "2D Vector",
                    "id": "7a578d2b-6c45-43d1-9a65-c68e78cd6335",
                    "path": "2DVector",
                    "interactions": "",
                    "processors": "",
                    "groups": "",
                    "action": "Move",
                    "isComposite": true,
                    "isPartOfComposite": false
                },
                {
                    "name": "up",
                    "id": "f7e0c0ab-fc48-4368-a2b8-54d88ab1be37",
                    "path": "<Keyboard>/w",
                    "interactions": "",
                    "processors": "",
                    "groups": "",
                    "action": "Move",
                    "isComposite": false,
                    "isPartOfComposite": true
                },
                {
                    "name": "down",
                    "id": "a8c58357-aa27-4be8-b7a7-1885c692d8a0",
                    "path": "<Keyboard>/s",
                    "interactions": "",
                    "processors": "",
                    "groups": "",
                    "action": "Move",
                    "isComposite": false,
                    "isPartOfComposite": true
                },
                {
                    "name": "left",
                    "id": "428d2680-a505-4315-b080-f7f8f5e143e4",
                    "path": "<Keyboard>/d",
                    "interactions": "",
                    "processors": "",
                    "groups": "",
                    "action": "Move",
                    "isComposite": false,
                    "isPartOfComposite": true
                },
                {
                    "name": "right",
                    "id": "022450f5-3121-425e-9914-8a494c8df0a1",
                    "path": "<Keyboard>/a",
                    "interactions": "",
                    "processors": "",
                    "groups": "",
                    "action": "Move",
                    "isComposite": false,
                    "isPartOfComposite": true
                },
                {
                    "name": "",
                    "id": "74094467-f9aa-4eb2-87b0-aabb4b14491f",
                    "path": "<Keyboard>/space",
                    "interactions": "",
                    "processors": "",
                    "groups": "",
                    "action": "Jump",
                    "isComposite": false,
                    "isPartOfComposite": false
                },
                {
                    "name": "",
                    "id": "d7959024-4092-4883-a351-3d2b7983831e",
                    "path": "<Mouse>/delta",
                    "interactions": "",
                    "processors": "",
                    "groups": "",
                    "action": "Mouse Look",
                    "isComposite": false,
                    "isPartOfComposite": false
                }
            ]
        }
    ],
    "controlSchemes": []
}